INTRO TO TIDYVERSE: TYPES OF VISUALIZATION
…
gapminder %>%
  filter(year == 1957)       # filter by year.

## # A tibble: 142 x 6
##    country     continent  year lifeExp      pop gdpPercap
##    <fct>       <fct>     <int>   <dbl>    <int>     <dbl>
##  1 Afghanistan Asia       1957    30.3  9240934      821.
##  2 Albania     Europe     1957    59.3  1476505     1942.
##  3 Algeria     Africa     1957    45.7 10270856     3014.
##  4 Angola      Africa     1957    32.0  4561361     3828.
##  5 Argentina   Americas   1957    64.4 19610538     6857.
##  6 Australia   Oceania    1957    70.3  9712569    10950.
##  7 Austria     Europe     1957    67.5  6965860     8843.
##  8 Bahrain     Asia       1957    53.8   138655    11636.
##  9 Bangladesh  Asia       1957    39.3 51365468      662.
## 10 Belgium     Europe     1957    69.2  8989111     9715.
## # ... with 132 more rows

gapminder %>%
  filter(lifeExp > 80)       # filter by conditions.

## # A tibble: 21 x 6
##    country          continent  year lifeExp      pop gdpPercap
##    <fct>            <fct>     <int>   <dbl>    <int>     <dbl>
##  1 Australia        Oceania    2002    80.4 19546792    30688.
##  2 Australia        Oceania    2007    81.2 20434176    34435.
##  3 Canada           Americas   2007    80.7 33390141    36319.
##  4 France           Europe     2007    80.7 61083916    30470.
##  5 Hong Kong, China Asia       2002    81.5  6762476    30209.
##  6 Hong Kong, China Asia       2007    82.2  6980412    39725.
##  7 Iceland          Europe     2002    80.5   288030    31163.
##  8 Iceland          Europe     2007    81.8   301931    36181.
##  9 Israel           Asia       2007    80.7  6426679    25523.
## 10 Italy            Europe     2002    80.2 57926999    27968.
## # ... with 11 more rows
gapminder %>%
  filter(country == "Canada",
         year == 1962)       # filter by more conditions.

## # A tibble: 1 x 6
##   country continent  year lifeExp      pop gdpPercap
##   <fct>   <fct>     <int>   <dbl>    <int>     <dbl>
## 1 Canada  Americas   1962    71.3 18985849    13462.

arrange() for sorting observations:

gapminder %>%
  arrange(lifeExp)           # sort in ascending order.

## # A tibble: 1,704 x 6
##    country      continent  year lifeExp     pop gdpPercap
##    <fct>        <fct>     <int>   <dbl>   <int>     <dbl>
##  1 Rwanda       Africa     1992    23.6 7290203      737.
##  2 Afghanistan  Asia       1952    28.8 8425333      779.
##  3 Gambia       Africa     1952    30    284320      485.
##  4 Angola       Africa     1952    30.0 4232095     3521.
##  5 Sierra Leone Africa     1952    30.3 2143249      880.
##  6 Afghanistan  Asia       1957    30.3 9240934      821.
##  7 Cambodia     Asia       1977    31.2 6978607      525.
##  8 Mozambique   Africa     1952    31.3 6446316      469.
##  9 Sierra Leone Africa     1957    31.6 2295678     1004.
## 10 Burkina Faso Africa     1952    32.0 4469979      543.
## # ... with 1,694 more rows

gapminder %>%
  arrange(desc(lifeExp))     # sort in descending order.

## # A tibble: 1,704 x 6
##    country          continent  year lifeExp       pop gdpPercap
##    <fct>            <fct>     <int>   <dbl>     <int>     <dbl>
##  1 Japan            Asia       2007    82.6 127467972    31656.
##  2 Hong Kong, China Asia       2007    82.2   6980412    39725.
##  3 Japan            Asia       2002    82   127065841    28605.
##  4 Iceland          Europe     2007    81.8    301931    36181.
##  5 Switzerland      Europe     2007    81.7   7554661    37506.
##  6 Hong Kong, China Asia       2002    81.5   6762476    30209.
##  7 Australia        Oceania    2007    81.2  20434176    34435.
##  8 Spain            Europe     2007    80.9  40448191    28821.
##  9 Sweden           Europe     2007    80.9   9031088    33860.
## 10 Israel           Asia       2007    80.7   6426679    25523.
## # ... with 1,694 more rows

Combining filter() and arrange():

gapminder %>%
  filter(year == 1952) %>%
  arrange(desc(lifeExp))

## # A tibble: 142 x 6
##    country        continent  year lifeExp      pop gdpPercap
##    <fct>          <fct>     <int>   <dbl>    <int>     <dbl>
##  1 Norway         Europe     1952    72.7  3327728    10095.
##  2 Iceland        Europe     1952    72.5   147962     7268.
##  3 Netherlands    Europe     1952    72.1 10381988     8942.
##  4 Sweden         Europe     1952    71.9  7124673     8528.
##  5 Denmark        Europe     1952    70.8  4334000     9692.
##  6 Switzerland    Europe     1952    69.6  4815000    14734.
##  7 New Zealand    Oceania    1952    69.4  1994794    10557.
##  8 United Kingdom Europe     1952    69.2 50430000     9980.
##  9 Australia      Oceania    1952    69.1  8691212    10040.
## 10 Canada         Americas   1952    68.8 14785584    11367.
## # ... with 132 more rows
…
mutate() for adding new variables (columns) to a data set or changing existing variables:

gapminder %>%
  mutate(pop = pop / 1000000)     # population in millions.

## # A tibble: 1,704 x 6
##    country     continent  year lifeExp   pop gdpPercap
##    <fct>       <fct>     <int>   <dbl> <dbl>     <dbl>
##  1 Afghanistan Asia       1952    28.8  8.43      779.
##  2 Afghanistan Asia       1957    30.3  9.24      821.
##  3 Afghanistan Asia       1962    32.0 10.3       853.
##  4 Afghanistan Asia       1967    34.0 11.5       836.
##  5 Afghanistan Asia       1972    36.1 13.1       740.
##  6 Afghanistan Asia       1977    38.4 14.9       786.
##  7 Afghanistan Asia       1982    39.9 12.9       978.
##  8 Afghanistan Asia       1987    40.8 13.9       852.
##  9 Afghanistan Asia       1992    41.7 16.3       649.
## 10 Afghanistan Asia       1997    41.8 22.2       635.
## # ... with 1,694 more rows

gapminder %>%
  mutate(gdp = gdpPercap * pop)   # add dgp column.

## # A tibble: 1,704 x 7
##    country     continent  year lifeExp      pop gdpPercap          gdp
##    <fct>       <fct>     <int>   <dbl>    <int>     <dbl>        <dbl>
##  1 Afghanistan Asia       1952    28.8  8425333      779.  6567086330.
##  2 Afghanistan Asia       1957    30.3  9240934      821.  7585448670.
##  3 Afghanistan Asia       1962    32.0 10267083      853.  8758855797.
##  4 Afghanistan Asia       1967    34.0 11537966      836.  9648014150.
##  5 Afghanistan Asia       1972    36.1 13079460      740.  9678553274.
##  6 Afghanistan Asia       1977    38.4 14880372      786. 11697659231.
##  7 Afghanistan Asia       1982    39.9 12881816      978. 12598563401.
##  8 Afghanistan Asia       1987    40.8 13867957      852. 11820990309.
##  9 Afghanistan Asia       1992    41.7 16317921      649. 10595901589.
## 10 Afghanistan Asia       1997    41.8 22227415      635. 14121995875.
## # ... with 1,694 more rows

Combine filter() and mutate():

gapminder %>%
  mutate(gdp = gdpPercap * pop) %>%
  filter(gdp >= 10000000000)

## # A tibble: 1,110 x 7
##    country     continent  year lifeExp      pop gdpPercap          gdp
##    <fct>       <fct>     <int>   <dbl>    <int>     <dbl>        <dbl>
##  1 Afghanistan Asia       1977    38.4 14880372      786. 11697659231.
##  2 Afghanistan Asia       1982    39.9 12881816      978. 12598563401.
##  3 Afghanistan Asia       1987    40.8 13867957      852. 11820990309.
##  4 Afghanistan Asia       1992    41.7 16317921      649. 10595901589.
##  5 Afghanistan Asia       1997    41.8 22227415      635. 14121995875.
##  6 Afghanistan Asia       2002    42.1 25268405      727. 18363410424.
##  7 Afghanistan Asia       2007    43.8 31889923      975. 31079291949.
##  8 Albania     Europe     1982    70.4  2780097     3631. 10094200603.
##  9 Albania     Europe     1987    72    3075321     3739. 11498418358.
## 10 Albania     Europe     1997    73.0  3428038     3193. 10945912519.
## # ... with 1,100 more rows

Combine arrange() with mutate():

gapminder %>%
  mutate(gdp = gdpPercap * pop) %>%
  arrange(desc(gdp))

## # A tibble: 1,704 x 7
##    country       continent  year lifeExp        pop gdpPercap     gdp
##    <fct>         <fct>     <int>   <dbl>      <int>     <dbl>   <dbl>
##  1 United States Americas   2007    78.2  301139947    42952. 1.29e13
##  2 United States Americas   2002    77.3  287675526    39097. 1.12e13
##  3 United States Americas   1997    76.8  272911760    35767. 9.76e12
##  4 United States Americas   1992    76.1  256894189    32004. 8.22e12
##  5 United States Americas   1987    75.0  242803533    29884. 7.26e12
##  6 China         Asia       2007    73.0 1318683096     4959. 6.54e12
##  7 United States Americas   1982    74.6  232187835    25010. 5.81e12
##  8 United States Americas   1977    73.4  220239000    24073. 5.30e12
##  9 United States Americas   1972    71.3  209896000    21806. 4.58e12
## 10 Japan         Asia       2007    82.6  127467972    31656. 4.04e12
## # ... with 1,694 more rows

Combine filter(), arrange() and mutate():

gapminder %>%
  filter(year == 2007) %>%
  mutate(gdp = gdpPercap * pop) %>%
  arrange(gdp)

## # A tibble: 142 x 7
##    country                  continent  year lifeExp     pop gdpPercap        gdp
##    <fct>                    <fct>     <int>   <dbl>   <int>     <dbl>      <dbl>
##  1 Sao Tome and Principe    Africa     2007    65.5  199579     1598.     3.19e8
##  2 Comoros                  Africa     2007    65.2  710960      986.     7.01e8
##  3 Guinea-Bissau            Africa     2007    46.4 1472041      579.     8.53e8
##  4 Djibouti                 Africa     2007    54.8  496374     2082.     1.03e9
##  5 Gambia                   Africa     2007    59.4 1688359      753.     1.27e9
##  6 Liberia                  Africa     2007    45.7 3193942      415.     1.32e9
##  7 Central African Republic Africa     2007    44.7 4369038      706.     3.08e9
##  8 Eritrea                  Africa     2007    58.0 4906585      641.     3.15e9
##  9 Lesotho                  Africa     2007    42.6 2012649     1569.     3.16e9
## 10 Burundi                  Africa     2007    49.6 8390505      430.     3.61e9
## # ... with 132 more rows

Find highest population countries in 2007 with a GDP less than 5 billion:

gapminder %>%
  mutate(gdp = gdpPercap * pop) %>%
  filter(year == 2007,  gdp > 5000000000) %>%
  arrange(desc(pop))

## # A tibble: 132 x 7
##    country       continent  year lifeExp        pop gdpPercap     gdp
##    <fct>         <fct>     <int>   <dbl>      <int>     <dbl>   <dbl>
##  1 China         Asia       2007    73.0 1318683096     4959. 6.54e12
##  2 India         Asia       2007    64.7 1110396331     2452. 2.72e12
##  3 United States Americas   2007    78.2  301139947    42952. 1.29e13
##  4 Indonesia     Asia       2007    70.6  223547000     3541. 7.92e11
##  5 Brazil        Americas   2007    72.4  190010647     9066. 1.72e12
##  6 Pakistan      Asia       2007    65.5  169270617     2606. 4.41e11
##  7 Bangladesh    Asia       2007    64.1  150448339     1391. 2.09e11
##  8 Nigeria       Africa     2007    46.9  135031164     2014. 2.72e11
##  9 Japan         Asia       2007    82.6  127467972    31656. 4.04e12
## 10 Mexico        Americas   2007    76.2  108700891    11978. 1.30e12
## # ... with 122 more rows
…
Summarize by both continent and year:

gapminder %>%
  group_by(year, continent) %>%
  summarize(meanLifeExp = mean(lifeExp),
            totalPop = sum(pop))

## `summarise()` regrouping output by 'year' (override with `.groups` argument)

## # A tibble: 60 x 4
## # Groups:   year [12]
##     year continent meanLifeExp   totalPop
##    <int> <fct>           <dbl>      <dbl>
##  1  1952 Africa           39.1  237640501
##  2  1952 Americas         53.3  345152446
##  3  1952 Asia             46.3 1395357351
##  4  1952 Europe           64.4  418120846
##  5  1952 Oceania          69.3   10686006
##  6  1957 Africa           41.3  264837738
##  7  1957 Americas         56.0  386953916
##  8  1957 Asia             49.3 1562780599
##  9  1957 Europe           66.7  437890351
## 10  1957 Oceania          70.3   11941976
## # ... with 50 more rows
…
