CASE STUDY: STACK OVERFLOW QUESTIONS
…
## -- Conflicts ------------------------------------ tidyverse_conflicts() --
## x dplyr::filter() masks stats::filter()
## x dplyr::lag()    masks stats::lag()

Stack Overflow tables

If you have been programming for a while, you might have come across Stack Overflow questions online. Each question comes with a score based on how people vote. It can also have several tags, including R. Each question can also have one or more answers.

Load the and examine the Stack Overflow questions about the programming language R:

questions <- readRDS("questions.rds") 
questions 

## # A tibble: 294,735 x 3
##          id creation_date score
##       <int> <date>        <int>
##  1 22557677 2014-03-21        1
##  2 22557707 2014-03-21        2
##  3 22558084 2014-03-21        2
##  4 22558395 2014-03-21        2
##  5 22558613 2014-03-21        0
##  6 22558677 2014-03-21        2
##  7 22558887 2014-03-21        8
##  8 22559180 2014-03-21        1
##  9 22559312 2014-03-21        0
## 10 22559322 2014-03-21        2
## # ... with 294,725 more rows

The table contains almost 300,000 questions that are tagged with R, along with the date they were asked and their score. A positive score means an upvote, a negative score means a downvote. Aside from R there are also other tags like dplyr, tidyr, ggplot2 etc., which are interesting information. To get that information, we have to do some joining.

Read and examine the question_tags and tags tables:

question_tags <- readRDS("question_tags.rds")
question_tags # matches each question, based on an ID, to a tag, which also has an ID.

## # A tibble: 497,153 x 2
##    question_id tag_id
##          <int>  <int>
##  1    22557677     18
##  2    22557677    139
##  3    22557677  16088
##  4    22557677   1672
##  5    22558084   6419
##  6    22558084  92764
##  7    22558395   5569
##  8    22558395    134
##  9    22558395   9412
## 10    22558395  18621
## # ... with 497,143 more rows

tags <- readRDS("tags.rds")
tags 

## # A tibble: 48,299 x 2
##        id tag_name                 
##     <dbl> <chr>                    
##  1 124399 laravel-dusk             
##  2 124402 spring-cloud-vault-config
##  3 124404 spring-vault             
##  4 124405 apache-bahir             
##  5 124407 astc                     
##  6 124408 simulacrum               
##  7 124410 angulartics2             
##  8 124411 django-rest-viewsets     
##  9 124414 react-native-lightbox    
## 10 124417 java-module              
## # ... with 48,289 more rows

The question_tags is an intermediate table; it does not have any data on the question or the tag themselves. It is typical for data from web databases. The tags table, in turn, links tag ID to tag names. We need to join both of theses tables to learn useful insights about the data. This can be done with a sequence of inner_join.

questions_with_tags <- questions %>%
  inner_join(question_tags, by = c("id" = "question_id")) %>%
  inner_join(tags, by = c("tag_id" = "id")) 
questions_with_tags

## # A tibble: 497,153 x 5
##          id creation_date score tag_id tag_name           
##       <int> <date>        <int>  <dbl> <chr>              
##  1 22557677 2014-03-21        1     18 regex              
##  2 22557677 2014-03-21        1    139 string             
##  3 22557677 2014-03-21        1  16088 time-complexity    
##  4 22557677 2014-03-21        1   1672 backreference      
##  5 22558084 2014-03-21        2   6419 time-series        
##  6 22558084 2014-03-21        2  92764 panel-data         
##  7 22558395 2014-03-21        2   5569 function           
##  8 22558395 2014-03-21        2    134 sorting            
##  9 22558395 2014-03-21        2   9412 vectorization      
## 10 22558395 2014-03-21        2  18621 operator-precedence
## # ... with 497,143 more rows

Since questions can have multiple tags, there are 500,000 question-tag pairs in the joined table, compared to only 300,000 questions to start.

To ensure we keep all questions, even those without a corresponding tag, use left join instead.

questions_with_tags <- questions %>%
  left_join(question_tags, by = c("id" = "question_id")) %>%
  left_join(tags, by = c("tag_id" = "id")) 
questions_with_tags # the table now has 545,684 rows.

## # A tibble: 545,694 x 5
##          id creation_date score tag_id tag_name       
##       <int> <date>        <int>  <dbl> <chr>          
##  1 22557677 2014-03-21        1     18 regex          
##  2 22557677 2014-03-21        1    139 string         
##  3 22557677 2014-03-21        1  16088 time-complexity
##  4 22557677 2014-03-21        1   1672 backreference  
##  5 22557707 2014-03-21        2     NA <NA>           
##  6 22558084 2014-03-21        2   6419 time-series    
##  7 22558084 2014-03-21        2  92764 panel-data     
##  8 22558395 2014-03-21        2   5569 function       
##  9 22558395 2014-03-21        2    134 sorting        
## 10 22558395 2014-03-21        2   9412 vectorization  
## # ... with 545,684 more rows

Since we know the questions data is all R data, we want to replace NA with only-R.

questions_with_tags %>% 
  replace_na(list(tag_name = "only-r"))

## # A tibble: 545,694 x 5
##          id creation_date score tag_id tag_name       
##       <int> <date>        <int>  <dbl> <chr>          
##  1 22557677 2014-03-21        1     18 regex          
##  2 22557677 2014-03-21        1    139 string         
##  3 22557677 2014-03-21        1  16088 time-complexity
##  4 22557677 2014-03-21        1   1672 backreference  
##  5 22557707 2014-03-21        2     NA only-r         
##  6 22558084 2014-03-21        2   6419 time-series    
##  7 22558084 2014-03-21        2  92764 panel-data     
##  8 22558395 2014-03-21        2   5569 function       
##  9 22558395 2014-03-21        2    134 sorting        
## 10 22558395 2014-03-21        2   9412 vectorization  
## # ... with 545,684 more rows

There are a lot we can learn from this joined data. For instance, find the most common tags that appear on R questions:

questions_with_tags %>%
  count(tag_name, sort = TRUE)

## # A tibble: 7,841 x 2
##    tag_name       n
##    <chr>      <int>
##  1 <NA>       48541
##  2 ggplot2    28228
##  3 dataframe  18874
##  4 shiny      14219
##  5 dplyr      14039
##  6 plot       11315
##  7 data.table  8809
##  8 matrix      6205
##  9 loops       5149
## 10 regex       4912
## # ... with 7,831 more rows

Compare scores across tags:

questions_with_tags %>%
  group_by(tag_name) %>%
  summarise(score = mean(score), num_questions = n()) %>%
  arrange(desc(num_questions))

## `summarise()` ungrouping output (override with `.groups` argument)

## # A tibble: 7,841 x 3
##    tag_name   score num_questions
##    <chr>      <dbl>         <int>
##  1 <NA>       1.26          48541
##  2 ggplot2    2.61          28228
##  3 dataframe  2.31          18874
##  4 shiny      1.45          14219
##  5 dplyr      1.95          14039
##  6 plot       2.24          11315
##  7 data.table 2.97           8809
##  8 matrix     1.66           6205
##  9 loops      0.743          5149
## 10 regex      2              4912
## # ... with 7,831 more rows

The tags table includes all Stack Overflow tags, but some have nothing to do with R. Filter for just the tags that never appear on an R question

tags %>%
  anti_join(question_tags, by = c("id" = "tag_id"))

## # A tibble: 40,459 x 2
##        id tag_name                 
##     <dbl> <chr>                    
##  1 124399 laravel-dusk             
##  2 124402 spring-cloud-vault-config
##  3 124404 spring-vault             
##  4 124405 apache-bahir             
##  5 124407 astc                     
##  6 124408 simulacrum               
##  7 124410 angulartics2             
##  8 124411 django-rest-viewsets     
##  9 124414 react-native-lightbox    
## 10 124417 java-module              
## # ... with 40,449 more rows

Since each theme is made up of many sets, combining these tables is the first step towards being able to compare different themes.

4.2 Joining questions and answers

Next we examine the answers that associate with each question:

answers <- readRDS("answers.rds")
answers

## # A tibble: 380,643 x 4
##          id creation_date question_id score
##       <int> <date>              <int> <int>
##  1 39143713 2016-08-25       39143518     3
##  2 39143869 2016-08-25       39143518     1
##  3 39143935 2016-08-25       39142481     0
##  4 39144014 2016-08-25       39024390     0
##  5 39144252 2016-08-25       39096741     6
##  6 39144375 2016-08-25       39143885     5
##  7 39144430 2016-08-25       39144077     0
##  8 39144625 2016-08-25       39142728     1
##  9 39144794 2016-08-25       39043648     0
## 10 39145033 2016-08-25       39133170     1
## # ... with 380,633 more rows
…
Adding tags to identify which R topics get the most traction:

tagged_answers <- question_answer_counts %>%
  inner_join(question_tags, by = c("id" = "question_id")) %>%
  inner_join(tags, by = c("tag_id" = "id")) 

Determine how many answers each question gets on average:

tagged_answers %>% group_by(tag_name) %>%
  summarise(questions = n(), average_answers = mean(n)) %>%
  arrange(desc(questions))

## `summarise()` ungrouping output (override with `.groups` argument)

## # A tibble: 7,840 x 3
##    tag_name   questions average_answers
##    <chr>          <int>           <dbl>
##  1 ggplot2        28228           1.15 
##  2 dataframe      18874           1.67 
##  3 shiny          14219           0.921
##  4 dplyr          14039           1.55 
##  5 plot           11315           1.23 
##  6 data.table      8809           1.47 
##  7 matrix          6205           1.45 
##  8 loops           5149           1.39 
##  9 regex           4912           1.91 
## 10 function        4892           1.30 
## # ... with 7,830 more rows

4.3 The bind_rows verb

So far we combined tables based on values that match between them. In some situations, instead of joining one variable next to each other, we may want to stack one on top of the other by binding rows.

posts <- questions %>%
  bind_rows(answers)
posts

## # A tibble: 675,378 x 4
##          id creation_date score question_id
##       <int> <date>        <int>       <int>
##  1 22557677 2014-03-21        1          NA
##  2 22557707 2014-03-21        2          NA
##  3 22558084 2014-03-21        2          NA
##  4 22558395 2014-03-21        2          NA
##  5 22558613 2014-03-21        0          NA
##  6 22558677 2014-03-21        2          NA
##  7 22558887 2014-03-21        8          NA
##  8 22559180 2014-03-21        1          NA
##  9 22559312 2014-03-21        0          NA
## 10 22559322 2014-03-21        2          NA
## # ... with 675,368 more rows
…
